EDA
…
#Summarize missingness
missing_summary <- diabetes |>
  summarize(across(everything(), ~sum(is.na(.)))) |>
  pivot_longer(everything(), 
               names_to = "variable",
               values_to = "n_missing") |>
  mutate(pct_missing = n_missing / nrow(diabetes)) |>
  arrange(desc(n_missing))

missing_summary

# A tibble: 22 × 3
   variable               n_missing pct_missing
   <chr>                      <int>       <dbl>
 1 diabetes_binary                0           0
 2 high_bp                        0           0
 3 high_chol                      0           0
 4 chol_check                     0           0
 5 bmi                            0           0
 6 smoker                         0           0
 7 stroke                         0           0
 8 heart_diseaseor_attack         0           0
 9 phys_activity                  0           0
10 fruits                         0           0
# ℹ 12 more rows
…
cat_summary

# A tibble: 44 × 4
   variable level     n    pct
   <chr>    <fct> <int>  <dbl>
 1 age      18–24  5700 0.0225
 2 age      25–29  7598 0.0300
 3 age      30–34 11123 0.0438
 4 age      35–39 13823 0.0545
 5 age      40–44 16157 0.0637
 6 age      45–49 19819 0.0781
 7 age      50–54 26314 0.104 
 8 age      55–59 30832 0.122 
 9 age      60–64 33244 0.131 
10 age      65–69 32194 0.127 
# ℹ 34 more rows
…
